Name,Sex,Division,Equipment,BodyweightKg,WeightClassKg,Bench1Kg,Bench2Kg,Bench3Kg,Bench4Kg,Best3BenchKg,TotalKg,Event,Place,Country
Leslie Watson,F,Open,Raw,51,52,60,65,67.5,70,67.5,67.5,B,1,
Dennis Bulford,M,Open,Raw,74.5,75,100,110,-115,,110,110,B,1,
Mick Cleak,M,Open,Raw,86.5,90,150,160,170,-180,170,170,B,1,
Danny Mehmet,M,Open,Raw,107,110,165,175,182.5,190,182.5,182.5,B,1,
David Catliffe,M,Open,Raw,114,125,180,200,212.5,,212.5,212.5,B,1,
Gary Boulton,M,Open,Raw,121.5,125,160,170,180,,180,180,B,2,
Martynunk Oleksandr,M,Open,Raw,67,67.5,120,-125,-125,,120,120,B,G,Ukraine
Vitaly Ponomarcnko,M,Open,Raw,100,100,270,280,290,300,290,290,B,G,Ukraine
