Name,Team,Division,BodyweightKg,WeightClassKg,Squat1Kg,Squat2Kg,Squat3Kg,Best3SquatKg,Bench1Kg,Bench2Kg,Bench3Kg,Best3BenchKg,Deadlift1Kg,Deadlift2Kg,Deadlift3Kg,Best3DeadliftKg,TotalKg,Place,Equipment,Event,Sex,BirthDate,State
Emma Goodwin,SM,F-C-Open,51.7,52,110,117.5,120,120,65,-70,-70,65,160,-170,170,170,355,1,Raw,SBD,F,,SM
Amanda Winter,SM,F-C-Open,48.4,52,75,77.5,82.5,82.5,50,55,-60,55,90,97.5,102.5,102.5,240,1,Raw,SBD,F,,SM
Ellie Steel,SM,F-C-Open,56.9,57,127.5,135,-145,135,92.5,97.5,100,100,145,155,165,165,400,1,Raw,SBD,F,,SM
Abigail Stacey,SM,F-C-Open,56.3,57,110,120,130,130,62.5,70,72.5,72.5,110,122.5,135,135,337.5,2,Raw,SBD,F,,SM
Stephanie Carter,SW,F-C-Open,56.6,57,90,105,-112.5,105,55,65,-72.5,65,105,120,130,130,300,3,Raw,SBD,F,,SW
Sofia Rufus,SM,F-C-Open,52.2,57,107.5,115,-120,115,50,55,-57.5,55,115,122.5,-130,122.5,292.5,4,Raw,SBD,F,,SM
Abigail Blumzon,SM,F-C-Open,56.1,57,95,100,105,105,47.5,52.5,55,55,120,127.5,132.5,132.5,292.5,5,Raw,SBD,F,,SM
Abbie Horrigan,SM,F-C-Open,56.8,57,77.5,87.5,90,90,40,42.5,-45,42.5,97.5,105,112.5,112.5,245,6,Raw,SBD,F,,SM
Emma Grant,SM,F-C-Open,57,57,77.5,85,90,90,42.5,47.5,50,50,85,95,102.5,102.5,242.5,7,Raw,SBD,F,,SM
Amy Richardson,SM,F-C-Open,57.3,63,75,82.5,90,90,55,60,-62.5,60,115,122.5,130,130,280,1,Raw,SBD,F,,SM
Amy Atkinson,SM,F-C-Open,67.4,72,150,157.5,162.5,162.5,92.5,95,-100,95,165,,,165,422.5,1,Raw,SBD,F,,SM
Kenlyn Stewart,SM,F-C-Open,71.7,72,107.5,115,117.5,117.5,-57.5,60,65,65,132.5,142.5,150,150,332.5,2,Raw,SBD,F,,SM
Mollie Thorpe,SM,F-C-Open,65.7,72,105,120,122.5,122.5,60,65,70,70,110,125,130,130,322.5,3,Raw,SBD,F,,SM
Louise Warr,SM,F-C-Open,70.6,72,107.5,115,-122.5,115,50,55,60,60,125,135,-150,135,310,4,Raw,SBD,F,,SM
Chloe Whylie,SM,F-C-Open,81.6,84,145,152.5,-157.5,152.5,75,80,-82.5,80,165,172.5,177.5,177.5,410,1,Raw,SBD,F,,SM
Sophie Coombes,SM,F-C-Open,78.8,84,140,147.5,152.5,152.5,75,80,85,85,140,152.5,160,160,397.5,2,Raw,SBD,F,,SM
Abbie Gjoka,SM,F-C-Open,83.4,84,140,147.5,152.5,152.5,35,45,55,55,140,150,-157.5,150,357.5,3,Raw,SBD,F,,SM
Sam Foulds,SM,F-C-Open,108.9,84+,125,132.5,140,140,75,80,85,85,125,155,160,160,385,1,Raw,SBD,F,,SM
Amanda Holloway,SM,F-C-Open,51.7,52,,,,,55,62.5,67.5,67.5,,,,,67.5,1,Raw,B,F,,SM
Vikram Thakur,TLH,M-C-Open,97.4,105,-195,210,227.5,227.5,,,,,,,,,227.5,1,Raw,S,M,,
Steven Smithies,TLH,M-C-Open,84.7,93,,,,,127.5,135,140,140,,,,,140,1,Raw,B,M,,
Lucy Hart,TLH,F-C-Open,61.6,63,,,,,,,,,137.5,152.5,160,160,160,1,Raw,D,F,,
Russ Kirby,TRK,M-C-Open,102.9,105,262.5,275,282.5,282.5,,,,,,,,,282.5,2,Raw,S,M,1971-05-30,
Justin Jakubait,TRK,M-C-Open,99.1,105,,,,,120,125,127.5,127.5,,,,,127.5,2,Raw,B,M,,
Steve Blackwell,TRK,M-C-Open,101.9,105,,,,,,,,,235,245,255,255,255,2,Raw,D,M,,
Paula Gould,TPG,F-C-Open,77.7,84,145,152.5,-155,152.5,,,,,,,,,152.5,3,Raw,S,F,,
Sara Smith #2,TPG,F-C-Open,71.2,72,,,,,57.5,62.5,-65,62.5,,,,,62.5,3,Raw,B,F,,
Shannon Rigler,TPG,F-C-Open,68.5,72,,,,,,,,,130,137.5,145,145,145,3,Raw,D,F,,
Luke Lorimer,TRB,M-C-Open,93.5,105,150,,,150,,,,,,,,,150,4,Raw,S,M,,
Wayne Searle,TRB,M-C-Open,97.3,105,,,,,130,140,-150,140,,,,,140,4,Raw,B,M,,
Ryan Bearpark,TRB,M-C-Open,76,83,,,,,,,,,195,205,210,210,210,4,Raw,D,M,,
Rudi O'Keefe,TPV,M-C-Open,89,93,125,135,-152.5,135,,,,,,,,,135,5,Raw,S,M,,
Philip Varcas,TPV,M-C-Open,97.3,105,,,,,122.5,127.5,-130,127.5,,,,,127.5,5,Raw,B,M,,
Bradley Williams,TPV,M-C-Open,139.7,120+,,,,,,,,,215,235,-247.5,235,235,5,Raw,D,M,,
Sally Russell,TPR,F-C-Open,88.4,84+,70,-75,-75,70,,,,,,,,,70,6,Raw,S,F,,
Paul Rice,TPR,M-C-Open,105.7,120,,,,,85,90,95,95,,,,,95,6,Raw,B,M,,
Simon Lewis #1,TPR,M-C-Open,164.3,120+,,,,,,,,,160,170,-180,170,170,6,Raw,D,M,,
Roderick Ramsey,SM,M-C-Open,65.4,66,165,-172.5,-172.5,165,95,-100,102.5,102.5,185,195,205,205,472.5,1,Raw,SBD,M,,SM
Diptarko Chowdhury,SM,M-C-Open,64.5,66,135,142.5,150,150,102.5,107.5,110,110,175,-185,185,185,445,2,Raw,SBD,M,,SM
Darren Helley,SM,M-C-Open,73.5,74,195,205,-207.5,205,125,130,-132.5,130,232.5,243,250,250,585,1,Raw,SBD,M,,SM
George Olteanu,SM,M-C-Open,68,74,165,170,175,175,-110,115,117.5,117.5,185,-195,195,195,487.5,2,Raw,SBD,M,,SM
Sam Coombes,SW,M-C-Open,81.5,83,205,220,-225,220,115,122.5,127.5,127.5,257.5,-275,-280,257.5,605,1,Raw,SBD,M,,SW
Nigel Seymour,SM,M-C-Open,81.1,83,145,-150,-150,145,105,110,-112.5,110,195,205,210,210,465,2,Raw,SBD,M,,SM
Daryl Wilkinson,SM,M-C-Open,81,83,147.5,155,160,160,95,97.5,105,105,167.5,177.5,185,185,450,3,Raw,SBD,M,1975-08-15,SM
Wesley Rawlings,SM,M-C-Open,83,83,155,165,175,175,82.5,87.5,-92.5,87.5,160,165,170,170,432.5,4,Raw,SBD,M,,SM
Isaac Hay,SM,M-C-Open,81.1,83,130,135,140,140,95,-100,-105,95,165,172.5,180,180,415,5,Raw,SBD,M,,SM
Joseph Jakubait,SE,M-C-Open,80.6,83,-135,140,145,145,65,70,-75,70,145,155,165,165,380,6,Raw,SBD,M,,SE
Jamie Vickers,SM,M-C-Open,81.5,83,,,,,130,140,-150,140,,,,,140,1,Raw,B,M,,SM
Kyran O'Neill,SM,M-C-Open,86.2,93,195,210,-220,210,120,130,-135,130,190,210,-230,210,550,1,Raw,SBD,M,,SM
Matt Chong,SM,M-C-Open,84.6,93,147.5,160,-170,160,87.5,95,-100,95,170,190,205,205,460,2,Raw,SBD,M,,SM
Attif Kabir,SM,M-C-Open,84.1,93,-155,160,-165,160,92.5,95,97.5,97.5,-215,-215,,,,DQ,Raw,SBD,M,,SM
Liam Sheppard,SM,M-C-Open,95.9,105,195,205,217.5,217.5,125,132.5,137.5,137.5,220,-232.5,-235,220,575,1,Raw,SBD,M,,SM
Tim Martin #3,SM,M-C-Open,94.4,105,160,170,177.5,177.5,100,102.5,105,105,220,-235,-235,220,502.5,2,Raw,SBD,M,,SM
Chris Street #1,SM,M-C-Open,102.7,105,,,,,147.5,157.5,165,165,,,,,165,1,Raw,B,M,,SM
Jordan Bollard,SM,M-C-Open,117.6,120,240,255,-263,255,125,135,-142.5,135,220,230,235,235,625,1,Raw,SBD,M,,SM
Spencer Florey,SM,M-C-Open,117.3,120,185,195,205,205,125,135,142.5,142.5,220,227.5,237.5,237.5,585,2,Raw,SBD,M,,SM
Ahmed Sharif,EM,M-C-Open,108.5,120,205,-220,220,220,65,75,90,90,-230,242.5,-257.5,242.5,552.5,3,Raw,SBD,M,,EM
David Murray #1,SM,M-E-Open,82.3,83,,,,,-165,-165,165,165,,,,,165,1,Single-ply,B,M,,SM
