Division,WeightClassKg,Place,Name,Team,BodyweightKg,Best3SquatKg,Best3BenchKg,Best3DeadliftKg,TotalKg,Equipment,Event,Sex,BirthDate
Boys,51.71,1,Anthony Ramirez,San Antonio East Central,50.62,117.93,92.99,154.22,365.14,Single-ply,SBD,M,
Boys,51.71,2,Josh Ramirez,Somerset,50.35,90.72,52.16,108.86,251.74,Single-ply,SBD,M,
Boys,51.71,3,Matthew Balderas,Crystal City,48.99,83.91,63.5,83.91,231.33,Single-ply,SBD,M,
Boys,55.79,1,Raul Musquiz,Crystal City,55.79,176.9,99.79,192.78,469.47,Single-ply,SBD,M,
Boys,55.79,2,Justin Figueroa,San Antonio East Central,55.52,176.9,113.4,176.9,467.2,Single-ply,SBD,M,
Boys,55.79,3,Braden Watson,Center Point,54.34,176.9,92.99,172.37,442.25,Single-ply,SBD,M,
Boys,55.79,4,Jonah Lopez,San Antonio Memorial,55.25,188.24,79.38,172.37,439.98,Single-ply,SBD,M,
Boys,55.79,5,Marcos Perez-Garcia,Geronimo Navarro,54.79,158.76,113.4,165.56,437.72,Single-ply,SBD,M,
Boys,55.79,6,Ryan Jiminez,Crystal City,55.52,154.22,92.99,170.1,417.3,Single-ply,SBD,M,
Boys,55.79,7,Angelo Legaspe,San Antonio Cole,55.61,154.22,97.52,151.95,403.7,Single-ply,SBD,M,
Boys,55.79,8,Christopher Cancino,San Antonio Cole,54.52,136.08,97.52,136.08,369.68,Single-ply,SBD,M,
Boys,55.79,9,Ashton Evans,Geronimo Navarro,53.25,117.93,74.84,120.2,312.98,Single-ply,SBD,M,
Boys,55.79,10,Elyjah Estrada-Nelson,San Antonio Brooks Academy,55.79,88.45,43.09,111.13,242.67,Single-ply,SBD,M,
Boys,59.87,1,Roel Barrera,Del Rio,58.69,165.56,108.86,140.61,415.04,Single-ply,SBD,M,
Boys,59.87,2,Tyler Williams,Center Point,59.15,163.29,86.18,145.15,394.63,Single-ply,SBD,M,
Boys,59.87,3,Blake Frye,Somerset,59.87,161.03,61.23,158.76,381.02,Single-ply,SBD,M,
Boys,59.87,4,Hector Garcia #2,Floresville,59.24,142.88,92.99,142.88,378.75,Single-ply,SBD,M,
Boys,59.87,5,Claude Faulkenberry,Crystal City,59.24,131.54,77.11,156.49,365.14,Single-ply,SBD,M,
Boys,59.87,6,Jordan Perez,Crystal City,59.6,133.81,74.84,154.22,362.87,Single-ply,SBD,M,
Boys,59.87,7,Harley Anderson #2,Floresville,58.33,113.4,74.84,140.61,328.85,Single-ply,SBD,M,
Boys,67.13,1,Joshua Bazan,Castroville Medina Valley,65.86,224.53,122.47,210.92,557.92,Single-ply,SBD,M,
Boys,67.13,2,Joseph Bazan,Castroville Medina Valley,66.86,201.85,124.74,219.99,546.58,Single-ply,SBD,M,
Boys,67.13,3,Alex Cardenas,Del Rio,64.77,158.76,122.47,197.31,478.54,Single-ply,SBD,M,
Boys,67.13,4,Noah Garcia,Somerset,65.05,174.63,120.2,174.63,469.47,Single-ply,SBD,M,
Boys,67.13,5,Jayden Ramos,San Antonio East Central,66.59,172.37,113.4,176.9,462.66,Single-ply,SBD,M,
Boys,67.13,6,Mauricio Gallegos,Center Point,66.32,176.9,83.91,181.44,442.25,Single-ply,SBD,M,
Boys,67.13,7,Ruben Cardenas,Del Rio,65.32,149.69,104.33,158.76,412.77,Single-ply,SBD,M,
Boys,67.13,8,Louis Stark,Floresville,65.32,154.22,102.06,154.22,410.5,Single-ply,SBD,M,
Boys,67.13,9,Jose Casteneda,Center Point,64.95,158.76,79.38,147.42,385.55,Single-ply,SBD,M,
Boys,67.13,10,Caleb Shiroky,Geronimo Navarro,67.13,124.74,95.25,163.29,383.29,Single-ply,SBD,M,
Boys,67.13,11,Thor Jensen,Geronimo Navarro,67.13,127.01,86.18,142.88,356.07,Single-ply,SBD,M,
Boys,67.13,12,Eden Flores,San Antonio Brooks Academy,63.78,120.2,72.57,142.88,335.66,Single-ply,SBD,M,
Boys,67.13,DQ,Bryant Van Winkle,Center Point,67.13,,,,,Single-ply,SBD,M,
Boys,74.84,1,Gavin LaFleur,Floresville,69.85,226.8,136.08,226.8,589.67,Single-ply,SBD,M,
Boys,74.84,2,Josiah Lugo,Somerset,70.58,233.6,142.88,197.31,573.79,Single-ply,SBD,M,
Boys,74.84,3,Izaac Zamora,Geronimo Navarro,73.12,210.92,131.54,201.85,544.31,Single-ply,SBD,M,
Boys,74.84,4,Zachary Nelson #5,Floresville,74.03,204.12,142.88,188.24,535.24,Single-ply,SBD,M,
Boys,74.84,5,Alex Villarreal,San Antonio Memorial,74.84,204.12,115.67,199.58,519.36,Single-ply,SBD,M,
Boys,74.84,6,Samuel Flores,Del Rio,68.67,183.7,120.2,183.7,487.61,Single-ply,SBD,M,
Boys,74.84,7,Tiago Ogden,San Antonio Cole,67.77,161.03,111.13,183.7,455.86,Single-ply,SBD,M,
Boys,74.84,8,Patrick Jass,Castroville Medina Valley,72.67,165.56,106.59,183.7,455.86,Single-ply,SBD,M,
Boys,74.84,9,Joseph Luna,Crystal City,74.21,172.37,88.45,192.78,453.59,Single-ply,SBD,M,
Boys,74.84,10,Adam Nieto,Geronimo Navarro,73.66,142.88,108.86,183.7,435.45,Single-ply,SBD,M,
Boys,74.84,11,Patrick Logan,San Antonio Cole,73.3,151.95,92.99,172.37,417.3,Single-ply,SBD,M,
Boys,74.84,12,Alex Zuniga,San Antonio Holy Cross,71.94,142.88,83.91,170.1,396.89,Single-ply,SBD,M,
Boys,74.84,13,Samuel Lopez,San Antonio Cole,73.39,142.88,77.11,167.83,387.82,Single-ply,SBD,M,
Boys,74.84,14,Matthew Rodriguez,Crystal City,74.57,142.88,77.11,158.76,378.75,Single-ply,SBD,M,
Boys,74.84,15,Zachary Sanchez,San Antonio Cole,71.4,133.81,68.04,158.76,360.61,Single-ply,SBD,M,
Boys,74.84,16,Gavin Munoz,San Antonio Brooks Academy,74.39,108.86,58.97,136.08,303.91,Single-ply,SBD,M,
Boys,74.84,DQ,DJ McCulley,Castroville Medina Valley,74.84,,,,,Single-ply,SBD,M,
Boys,74.84,DQ,Rafael Rivero,San Antonio Cole,74.84,,,,,Single-ply,SBD,M,
Boys,74.84,DQ,Casey Vincent,Center Point,72.39,,,,,Single-ply,SBD,M,
Boys,74.84,DQ,Raymond Hernandez,Crystal City,72.67,,,,,Single-ply,SBD,M,
Boys,74.84,DQ,Adrian Cardenas,Del Rio,71.49,,,,,Single-ply,SBD,M,
Boys,82.1,1,Martin Qunitanilla,San Antonio Brooks Academy,78.83,226.8,111.13,215.46,553.38,Single-ply,SBD,M,
Boys,82.1,2,Jason Figueroa,San Antonio East Central,81.28,217.72,142.88,183.7,544.31,Single-ply,SBD,M,
Boys,82.1,3,Diego Campos,Geronimo Navarro,81.56,185.97,117.93,208.65,512.56,Single-ply,SBD,M,
Boys,82.1,4,Alberto Vasquez,Floresville,80.01,197.31,127.01,185.97,510.29,Single-ply,SBD,M,
Boys,82.1,5,Rene Carrasco,Del Rio,79.02,215.46,115.67,176.9,508.02,Single-ply,SBD,M,
Boys,82.1,6,Cole Mouser,Geronimo Navarro,81.65,174.63,133.81,197.31,505.76,Single-ply,SBD,M,
Boys,82.1,7,Ray Torres,San Antonio East Central,81.47,174.63,117.93,195.04,487.61,Single-ply,SBD,M,
Boys,82.1,8,Eddie Flemma,Center Point,81.92,181.44,111.13,170.1,462.66,Single-ply,SBD,M,
Boys,82.1,9,Wade Lee,Floresville,81.37,161.03,99.79,170.1,430.91,Single-ply,SBD,M,
Boys,82.1,10,George Casarez,San Antonio Holy Cross,75.84,151.95,92.99,151.95,396.89,Single-ply,SBD,M,
Boys,82.1,11,Nathaniel Callahan,San Antonio Cole,77.29,117.93,63.5,149.69,331.12,Single-ply,SBD,M,
Boys,82.1,DQ,Jesse Tavarez,San Antonio Memorial,82.1,,,,,Single-ply,SBD,M,
Boys,82.1,DQ,Hayden Toliver,Geronimo Navarro,82.1,,,,,Single-ply,SBD,M,
Boys,82.1,DQ,Richard Gonzalez,Castroville Medina Valley,82.1,,,,,Single-ply,SBD,M,
Boys,82.1,DQ,Brandon Perez #8,Crystal City,82.1,,,,,Single-ply,SBD,M,
Boys,82.1,DQ,David Garcia #20,Somerset,79.2,183.7,,,,Single-ply,SBD,M,
Boys,89.81,1,Michael Connell,San Antonio East Central,87.36,226.8,140.61,249.48,616.89,Single-ply,SBD,M,
Boys,89.81,2,Caden Bosanko,San Antonio East Central,83.91,251.74,129.27,215.46,596.47,Single-ply,SBD,M,
Boys,89.81,3,Isaac Cervantes,Center Point,86.82,204.12,113.4,226.8,544.31,Single-ply,SBD,M,
Boys,89.81,4,Matt Richardson,Geronimo Navarro,88.18,208.65,140.61,188.24,537.51,Single-ply,SBD,M,
Boys,89.81,5,Adam Chavez,Castroville Medina Valley,88,195.04,113.4,199.58,508.02,Single-ply,SBD,M,
Boys,89.81,6,Jason Coronado,Floresville,89.18,183.7,113.4,204.12,501.22,Single-ply,SBD,M,
Boys,89.81,7,Vilhelm Hansson,Floresville,85.55,183.7,124.74,181.44,489.88,Single-ply,SBD,M,
Boys,89.81,8,Gideon Flores,San Antonio Brooks Academy,86.91,158.76,88.45,174.63,421.84,Single-ply,SBD,M,
Boys,89.81,9,Angel Rodriguez Solano,San Antonio Brooks Academy,89.45,108.86,58.97,172.37,340.19,Single-ply,SBD,M,
Boys,89.81,10,Caleb Glaser,San Antonio Cole,83.82,122.47,63.5,142.88,328.85,Single-ply,SBD,M,
Boys,89.81,DQ,Westin Schwartz,Castroville Medina Valley,89.81,,,,,Single-ply,SBD,M,
Boys,89.81,DQ,Mario Jaramillo,Castroville Medina Valley,88.36,,,,,Single-ply,SBD,M,
Boys,89.81,DQ,Raul Maldonado,Crystal City,86.73,226.8,147.42,,,Single-ply,SBD,M,
Boys,89.81,DQ,Ricardo Torres,Del Rio,86.45,206.38,,,,Single-ply,SBD,M,
Boys,89.81,DQ,Daniel Arellano,Floresville,82.92,219.99,142.88,,,Single-ply,SBD,M,
Boys,99.79,1,Seth Bullard,Castroville Medina Valley,97.25,272.16,170.1,249.48,691.73,Single-ply,SBD,M,
Boys,99.79,2,Timothy Huff,San Antonio East Central,94.35,249.48,136.08,281.23,666.78,Single-ply,SBD,M,
Boys,99.79,3,Daniel Trujillo,San Antonio East Central,92.17,219.99,115.67,233.6,569.26,Single-ply,SBD,M,
Boys,99.79,4,Gavin Aguirre,Castroville Medina Valley,95.35,219.99,142.88,201.85,564.72,Single-ply,SBD,M,
Boys,99.79,5,Jesus Tellez,Crystal City,99.52,208.65,138.35,199.58,546.58,Single-ply,SBD,M,
Boys,99.79,6,Leo Hernandez-Garza,San Antonio Cole,98.34,204.12,131.54,192.78,528.44,Single-ply,SBD,M,
Boys,99.79,7,Luke Glaser,San Antonio Cole,96.34,204.12,106.59,208.65,519.36,Single-ply,SBD,M,
Boys,99.79,8,Marcus Serda,San Antonio East Central,99.43,183.7,129.27,206.38,519.36,Single-ply,SBD,M,
Boys,99.79,9,Salvador Sanchez,Somerset,94.08,190.51,113.4,192.78,496.68,Single-ply,SBD,M,
Boys,99.79,10,Gabe Ceniceros,Center Point,97.61,190.51,108.86,181.44,480.81,Single-ply,SBD,M,
Boys,99.79,11,Jayson Clinton,San Antonio Cole,99.43,163.29,104.33,183.7,451.32,Single-ply,SBD,M,
Boys,99.79,12,Elijah Will,San Antonio Cole,94.08,167.83,92.99,183.7,444.52,Single-ply,SBD,M,
Boys,99.79,13,Angel Garcia #11,San Antonio Brooks Academy,99.52,145.15,86.18,183.7,415.04,Single-ply,SBD,M,
Boys,99.79,DQ,Chase Howell,San Antonio Cole,99.79,,,,,Single-ply,SBD,M,
Boys,99.79,DQ,Kehinde Atunrase,San Antonio Cole,99.79,,,,,Single-ply,SBD,M,
Boys,109.77,1,Steven Terrazas,Somerset,109.5,281.23,195.04,247.21,723.48,Single-ply,SBD,M,
Boys,109.77,2,Jake Laque,Center Point,104.6,276.69,138.35,219.99,635.03,Single-ply,SBD,M,
Boys,109.77,3,Gerardo Cantu,Somerset,102.87,244.94,147.42,217.72,610.08,Single-ply,SBD,M,
Boys,109.77,4,Cesar Diaz,Del Rio,100.06,215.46,142.88,206.38,564.72,Single-ply,SBD,M,
Boys,109.77,5,Timothy Rios,Castroville Medina Valley,108.5,183.7,142.88,183.7,510.29,Single-ply,SBD,M,
Boys,109.77,6,Gabriel Sanchez,Del Rio,102.6,188.24,124.74,188.24,501.22,Single-ply,SBD,M,
Boys,109.77,7,Aaron Davis #2,Center Point,101.6,183.7,77.11,181.44,442.25,Single-ply,SBD,M,
Boys,109.77,8,Isaiah Soto,San Antonio Brooks Academy,102.06,90.72,72.57,136.08,299.37,Single-ply,SBD,M,
Boys,109.77,DQ,Aaron Martinez,San Antonio Holy Cross,104.78,,,,,Single-ply,SBD,M,
Boys,124.74,1,Isaiah Garay,Somerset,110.4,317.51,233.6,210.92,762.04,Single-ply,SBD,M,
Boys,124.74,2,Michael Pinones,San Antonio East Central,122.2,272.16,181.44,272.16,725.75,Single-ply,SBD,M,
Boys,124.74,3,Frankie Castillo,Somerset,119.2,281.23,147.42,215.46,644.1,Single-ply,SBD,M,
Boys,124.74,4,Reymundo Arellano,San Antonio Memorial,112.85,258.55,136.08,224.53,619.15,Single-ply,SBD,M,
Boys,124.74,5,Caleb Rodriguez,Del Rio,124.28,240.4,115.67,195.04,551.11,Single-ply,SBD,M,
Boys,124.74,6,David Narvaez,San Antonio Memorial,112.85,204.12,136.08,192.78,532.97,Single-ply,SBD,M,
Boys,124.74,7,Tonie Cole,Geronimo Navarro,110.77,208.65,127.01,195.04,530.7,Single-ply,SBD,M,
Boys,124.74,8,Cj Beal,Castroville Medina Valley,119.57,204.12,124.74,183.7,512.56,Single-ply,SBD,M,
Boys,124.74,9,Daniel Alonzo,San Antonio Holy Cross,117.75,165.56,111.13,179.17,455.86,Single-ply,SBD,M,
Boys,124.74,10,Isaac Tello,San Antonio Brooks Academy,112.04,147.42,79.38,183.7,410.5,Single-ply,SBD,M,
Boys,124.74,11,Jeremy Austin,San Antonio Cole,116.75,147.42,77.11,158.76,383.29,Single-ply,SBD,M,
Boys,124.74,DQ,Sebastian Garcia,San Antonio Brooks Academy,124.74,,,,,Single-ply,SBD,M,
Boys,139.71,1,Abraham Vasquez,Somerset,132.72,290.3,149.69,251.74,691.73,Single-ply,SBD,M,
Boys,139.71,2,Israel Moncada,Crystal City,129.36,226.8,122.47,165.56,514.83,Single-ply,SBD,M,
Boys,139.71,3,Joaquinn Fuentes,Del Rio,135.08,192.78,111.13,197.31,501.22,Single-ply,SBD,M,
Boys,139.71,4,Doyle Berry,Geronimo Navarro,128.28,172.37,117.93,158.76,449.06,Single-ply,SBD,M,
Boys,139.71,5,Donald Jurek,San Antonio East Central,136.71,188.24,108.86,149.69,446.79,Single-ply,SBD,M,
Boys,139.71,6,Nicolas Moreno,Floresville,134.54,136.08,102.06,158.76,396.89,Single-ply,SBD,M,
Boys,139.71,DQ,Andrew Sanchez,San Antonio Brooks Academy,139.71,,,,,Single-ply,SBD,M,
Boys,139.71+,1,Ivan Garcia #1,San Antonio Memorial,144.88,272.16,158.76,229.06,659.98,Single-ply,SBD,M,
Boys,139.71+,2,Manuel Belmarez,San Antonio Memorial,145.15,238.14,149.69,199.58,587.4,Single-ply,SBD,M,
Boys,139.71+,3,Diego Garcia #2,Del Rio,144.7,188.24,140.61,204.12,532.97,Single-ply,SBD,M,
Boys,139.71+,4,Javier Adams,Somerset,177.81,183.7,165.56,183.7,532.97,Single-ply,SBD,M,
Boys,139.71+,5,Exodus Acevedo,Floresville,140.98,183.7,127.01,195.04,505.76,Single-ply,SBD,M,
Boys,139.71+,6,Luis Sanchez,San Antonio Holy Cross,147.24,174.63,113.4,199.58,487.61,Single-ply,SBD,M,
