Place,Name,Sex,BirthYear,Age,BirthDate,Country,State,Equipment,Division,BodyweightKg,WeightClassKg,Squat1Kg,Squat2Kg,Squat3Kg,Best3SquatKg,Bench1Kg,Bench2Kg,Bench3Kg,Best3BenchKg,Deadlift1Kg,Deadlift2Kg,Deadlift3Kg,Best3DeadliftKg,TotalKg,Event
G,Sami DePass,F,1997,24,,Jamaica,,Raw,FR-G,75.53,76,172.5,182.5,190,190,87.5,95,97.5,97.5,207.5,217.5,-227.5,217.5,505,SBD
1,Heather Connor,F,1991,30,,,NC,Raw,FR-O,46,47,127.5,135,142.5,142.5,70,-72.5,-72.5,70,180,185,190,190,402.5,SBD
2,Cindy Vanh,F,1995,27,,,FL,Raw,FR-O,45.18,47,82.5,90,95,95,52.5,-57.5,-57.5,52.5,105,112.5,120,120,267.5,SBD
1,Marisa Inda,F,1976,45,,,CA,Raw,FR-O,51.99,52,130,135,-140,135,97.5,102.5,-105,102.5,150,-155,-155,150,387.5,SBD
2,Agata Przybylska,F,1997,24,,,VA,Raw,FR-O,51.39,52,120,-127.5,-127.5,120,65,70,75,75,155,165,-175,165,360,SBD
1,Alexzandria Rattanavong,F,1996,25,,,TX,Raw,FR-O,56.67,57,122.5,130,137.5,137.5,62.5,67.5,-72.5,67.5,160,170,-177.5,170,375,SBD
1,Meghan Scanlon,F,1988,34,,,MA,Raw,FR-O,62.25,63,170,177.5,-182.5,177.5,117.5,-122.5,122.5,122.5,177.5,187.5,195,195,495,SBD
2,Ellen Liverpool,F,1993,29,,,MD,Raw,FR-O,62.96,63,157.5,165,170,170,75,80,82.5,82.5,180,190,-197.5,190,442.5,SBD
1,Kristen Dunsmore,F,1989,32,,,CA,Raw,FR-O,68.55,69,157.5,167.5,172.5,172.5,105,107.5,-110,107.5,200,207.5,215,215,495,SBD
2,Chelsea Savit,F,1991,30,,,TX,Raw,FR-O,68.25,69,165,175,180.5,180.5,-113,113,117.5,117.5,195,-205,,195,493,SBD
3,Precious Andrew,F,1986,36,,,NM,Raw,FR-O,66.55,69,155,160,-170,160,92.5,97.5,-100,97.5,165,182.5,-202.5,182.5,440,SBD
4,Tessa Willis,F,1996,26,,,TX,Raw,FR-O,66.69,69,132.5,142.5,-150,142.5,-60,62.5,-67.5,62.5,175,187.5,192.5,192.5,397.5,SBD
1,Dayna McNeal,F,1984,37,,,GA,Raw,FR-O,73.63,76,175,182.5,190,190,90,95,97.5,97.5,215,230,245,245,532.5,SBD
2,Aliza Tessler,F,1994,27,,,NY,Raw,FR-O,75.94,76,-142.5,142.5,150,150,85,-90,-92.5,85,160,175,182.5,182.5,417.5,SBD
1,Amanda Lawrence #1,F,1997,24,,,MN,Raw,FR-O,83.81,84,227.5,237.5,242.5,242.5,120,127.5,130,130,235,245,253,253,625.5,SBD
2,Jasmine Dube,F,1990,31,,,NH,Raw,FR-O,79.6,84,150,162.5,-165,162.5,80,-87.5,-87.5,80,165,177.5,-187.5,177.5,420,SBD
3,Jackie Mercer,F,1983,38,,,OR,Raw,FR-O,82.23,84,115,122.5,-127.5,122.5,65,70,-72.5,70,160,170,180,180,372.5,SBD
1,Bonica Brown,F,1988,33,,,NE,Raw,FR-O,139.01,84+,245,255,260,260,135,142.5,147.5,147.5,220,230,240,240,647.5,SBD
2,Alexandra Washington,F,2002,19,,,CA,Raw,FR-O,92.16,84+,145,152.5,155,155,82.5,90,-92.5,90,165,175,-182.5,175,420,SBD
3,Jaycee Cooper,F,1987,34,,,MN,Raw,FR-O,142.95,84+,127.5,137.5,150,150,92.5,97.5,-102.5,97.5,130,142.5,155,155,402.5,SBD
G,Martin Agoes,M,1987,34,,,TX,Raw,MR-G,121.24,120+,265,295,-317.5,295,210,220,-227.5,220,220,272.5,-275,272.5,787.5,SBD
G,Jevon DaCosta,M,1992,30,,Jamaica,,Raw,MR-G,91.63,93,237.5,-250,260,260,-185,192.5,195,195,287.5,307.5,-320,307.5,762.5,SBD
G,Scott Jennings,M,1995,26,,Jamaica,,Raw,MR-G,81.64,83,237.5,250,257.5,257.5,165,-185,-185,165,295,317.5,325,325,747.5,SBD
1,Eric Kupperstein,M,1966,56,,,MA,Raw,MR-O,57.86,59,145,160,-170,160,60,65,-70,65,185,205,225,225,450,SBD
1,Jonathan Garcia #1,M,1988,33,,,FL,Raw,MR-O,65.9,66,250,260,-268,260,162.5,170.5,173,173,230,237.5,242.5,242.5,675.5,SBD
2,Rodrigo Manzo,M,1993,28,,,CA,Raw,MR-O,65.92,66,225,-235,-235,225,-155,155,-162.5,155,272.5,-285,-296,272.5,652.5,SBD
3,Arnold Delgadillo,M,1997,24,,,KS,Raw,MR-O,65.86,66,-175,175,187.5,187.5,125,130,135,135,197.5,210,-220,210,532.5,SBD
1,Taylor Atwood,M,1988,33,,,NY,Raw,MR-O,73.72,74,230,242.5,255,255,187.5,196,202.5,202.5,245,260,275,275,732.5,SBD
2,Andrew Sardis,M,1991,31,,,FL,Raw,MR-O,72.58,74,175,185,190,190,115,120,-122.5,120,185,192.5,-195,192.5,502.5,SBD
1,Delaney Wallace,M,1994,27,,,NY,Raw,MR-O,82.36,83,282.5,295,300,300,-187.5,187.5,190,190,290,305,320,320,810,SBD
2,Sean Jin,M,1999,23,,,CA,Raw,MR-O,82.62,83,252.5,270,280,280,175,185,187.5,187.5,260,282.5,292.5,292.5,760,SBD
3,Jonathan Losa,M,1982,39,,,FL,Raw,MR-O,82.93,83,215,225,240,240,185,195,200,200,225,242.5,260,260,700,SBD
1,Jonathan Cayco,M,1992,29,,,CA,Raw,MR-O,92.8,93,282.5,295,300,300,227.5,235.5,240.5,240.5,327.5,342.5,347.5,347.5,888,SBD
2,Chance Mitchell,M,1994,27,,,TX,Raw,MR-O,92.37,93,285,300,307.5,307.5,177.5,185,-190,185,345,367.5,383,383,875.5,SBD
3,Tyler Wilburn,M,1993,28,,,TX,Raw,MR-O,92.11,93,205,217.5,227.5,227.5,160,-167.5,-167.5,160,215,230,240,240,627.5,SBD
4,Scott Stratford,M,1994,27,,,AZ,Raw,MR-O,91.3,93,182.5,192.5,202.5,202.5,100,105,110,110,202.5,217.5,227.5,227.5,540,SBD
1,Michael Davis #1,M,1995,26,,,TX,Raw,MR-O,104.88,105,307.5,322.5,327.5,327.5,205,215,220,220,345,-368,-370.5,345,892.5,SBD
2,Brandon Dudley,M,1999,23,,,FL,Raw,MR-O,104.9,105,305,315,320,320,172.5,-180,-180,172.5,345,357.5,365,365,857.5,SBD
1,Enrique Lugo,M,1996,25,,,TX,Raw,MR-O,119.06,120,332.5,347.5,-350,347.5,220,225,230,230,320,335,342.5,342.5,920,SBD
2,Tristan Nazelrod,M,1996,25,,,PA,Raw,MR-O,119.61,120,325,340,345,345,210,215,-217.5,215,310,330,-362.5,330,890,SBD
3,Nicholas Guidice,M,1987,35,,,NH,Raw,MR-O,106.25,120,285,302.5,-305,302.5,220,225,-230,225,290,310,-335,310,837.5,SBD
4,Calvin Hugo,M,1990,31,,,MN,Raw,MR-O,117.51,120,262.5,275,-280,275,165,170,-175,170,265,285,295,295,740,SBD
1,Jesus Olivares,M,1998,23,,,TX,Raw,MR-O,173.4,120+,410,435,450,450,240,250,257.5,257.5,355,385,402.5,402.5,1110,SBD
2,Pablo Olivares,M,1999,22,,,TX,Raw,MR-O,168.81,120+,-332.5,332.5,357.5,357.5,190,-202.5,202.5,202.5,320,-340,340,340,900,SBD
3,Andres Soto,M,1998,24,,,TX,Raw,MR-O,155.68,120+,320,332.5,337.5,337.5,175,-182.5,-182.5,175,242.5,252.5,-255,252.5,765,SBD
4,Farod-james Kee,M,1993,28,,,NC,Raw,MR-O,139.99,120+,125,-225,-275,125,247.5,272.5,-282.5,272.5,125,225,245,245,642.5,SBD
